{
  "project_info": {
    "project_number": "819879247398",
    "firebase_url": "https://workoutitu-default-rtdb.firebaseio.com",
    "project_id": "workoutitu",
    "storage_bucket": "workoutitu.appspot.com"
  },
  "client": [
    {
      "client_info": {
        "mobilesdk_app_id": "1:819879247398:android:8538595361ded01b9770e7",
        "android_client_info": {
          "package_name": "mg.itu.workout"
        }
      },
      "oauth_client": [
        {
          "client_id": "819879247398-ivcj6v19fla1dqh4avf49dn64jg69vf3.apps.googleusercontent.com",
          "client_type": 3
        }
      ],
      "api_key": [
        {
          "current_key": "AIzaSyBpCUpx6BQRH_m9jCbKeD0KfU3qZVkZcY0"
        }
      ],
      "services": {
        "appinvite_service": {
          "other_platform_oauth_client": [
            {
              "client_id": "819879247398-ivcj6v19fla1dqh4avf49dn64jg69vf3.apps.googleusercontent.com",
              "client_type": 3
            }
          ]
        }
      }
    }
  ],
  "configuration_version": "1"
}